{
  "scan": {
    "analyzer": {
      "id": "browserker",
      "name": "Browserker",
      "url": "https://gitlab.com/gitlab-org/security-products/analyzers/browserker",
      "version": "v0.0.80",
      "vendor": {
        "name": "GitLab"
      }
    },
    "end_time": "2022-05-27T01:08:54",
    "start_time": "2022-05-27T01:07:54",
    "scanner": {
      "id": "browserker",
      "name": "Browserker",
      "url": "https://gitlab.com/gitlab-org/security-products/analyzers/browserker",
      "version": "v0.0.80",
      "vendor": {
        "name": "GitLab"
      }
    },
    "scanned_resources": [
      {
        "url": "http://check-352-1/home",
        "method": "GET",
        "type": "url"
      },
      {
        "url": "http://check-352-1/login",
        "method": "POST",
        "type": "url"
      },
      {
        "url": "http://check-352-1/login-form",
        "method": "GET",
        "type": "url"
      },
      {
        "url": "http://check-352-1/settings",
        "method": "GET",
        "type": "url"
      },
      {
        "url": "http://check-352-1/update-password?new_password=testP%40assw0rd1foobar",
        "method": "GET",
        "type": "url"
      }
    ],
    "status": "success",
    "type": "dast"
  },
  "vulnerabilities": [
    {
      "id": "936ff19d-dd59-11ec-8799-0242ac150003",
      "category": "dast",
      "confidence": "Medium",
      "cve": "352.1",
      "description": "The application failed to protect against Cross-Site Request Forgery (CSRF) by using\nsecure application tokens or `SameSite` cookie directives.\n\nThe vulnerability can be exploited by an attacker creating a link or form on a third\nparty site and tricking an authenticated victim to access them.",
      "discovered_at": "2022-05-27T01:08:53.705",
      "evidence": {
        "summary": "GET new_password: testP@assw0rd1foobar sessionID=********; Domain=check-352-1; Expires=1969-12-31 23:59:59 +0000 UTC; HttpOnly; Path=/"
      },
      "scanner": {
        "id": "browserker",
        "name": "Browserker"
      },
      "identifiers": [
        {
          "name": "Absence of anti-CSRF tokens",
          "type": "browserker",
          "url": "https://docs.gitlab.com/ee/user/application_security/dast/checks/352.1.html",
          "value": "352.1"
        },
        {
          "name": "CWE-352",
          "type": "CWE",
          "url": "https://cwe.mitre.org/data/definitions/352.html",
          "value": "352"
        }
      ],
      "location": {
        "hostname": "http://check-352-1",
        "method": "",
        "param": "",
        "path": ""
      },
      "details": {
        "urls": {
          "name": "URLs",
          "type": "list",
          "items": [
            {
              "type": "url",
              "href": "http://check-352-1/update-password?new_password=testP%40assw0rd1foobar"
            }
          ]
        }
      },
      "solution": "Consider setting all session cookies to have the `SameSite=Strict` attribute. However,\nit should be noted that this may impact usability when sharing links across other mediums.\nIt is recommended that a two cookie based approach is taken, as outlined in the\n[Top level navigations](https://datatracker.ietf.org/doc/html/draft-ietf-httpbis-rfc6265bis-08#section-8.8.2) section\nof the RFC.\n\nIf the application is using a common framework, there is a chance that Anti-CSRF protection\nis built in but needs to be enabled. Consult your application framework documentation for\ndetails.\n\nIf neither of the above are applicable, it is *strongly* recommended that a third party library is used.\nImplementing a secure Anti-CSRF system is a significant investment and difficult to do correctly.",
      "message": "Absence of anti-CSRF tokens",
      "links": [
        {
          "name": "OWASP",
          "url": "https://owasp.org/www-community/attacks/csrf"
        },
        {
          "name": "CWE",
          "url": "https://cwe.mitre.org/data/definitions/352.html"
        }
      ],
      "severity": "Medium"
    }
  ],
  "version": "14.0.3"
}
